Chapter 10 Model Choice | Gov 50: Data
…
10.6.2 Regression metrics

Recall from Section 10.4.3 that tidymodels prediction functions produce tibbles with columns for the predicted values. These columns have consistent names, and the functions in the yardstick package that produce performance metrics have consistent interfaces. The functions are data frame-based, as opposed to vector-based, with the general syntax of:

function(data, truth, ...)

where data is a data frame or tibble and truth is the column with the observed outcome values. The ellipses or other arguments are used to specify the column(s) containing the predictions.

To illustrate, let’s evaluate the model we have constructed for the Ames house price data. Recall that the lm_fit object was a linear regression model whose predictor set was supplemented with an interaction term. It was created from a training set (named ames_train). Although we do not advise using the test set at this juncture of the modeling process, it will be used to illustrate functionality and syntax. The data frame ames_test consists of 731 properties. To start, let’s produce predictions:

ames_test_res <- predict(lm_fit, new_data = ames_test %>% 
                           select(-Sale_Price))
ames_test_res

## # A tibble: 731 x 1
##    .pred
##    <dbl>
##  1  5.33
##  2  5.31
##  3  5.17
##  4  5.51
##  5  5.09
##  6  5.48
##  7  5.52
##  8  5.44
##  9  5.55
## 10  5.24
## # … with 721 more rows

The predicted numeric outcome from the regression model is named .pred. Let’s match the predicted values with their corresponding observed outcome values:

ames_test_res <- bind_cols(ames_test_res, ames_test %>% select(Sale_Price))
ames_test_res

## # A tibble: 731 x 2
##    .pred Sale_Price
##    <dbl>      <dbl>
##  1  5.33       5.39
##  2  5.31       5.28
##  3  5.17       5.27
##  4  5.51       5.60
##  5  5.09       5.02
##  6  5.48       5.49
##  7  5.52       5.60
##  8  5.44       5.34
##  9  5.55       5.51
## 10  5.24       5.30
## # … with 721 more rows
…
Larger number of replicates tend to have less impact on the standard error. However, if the baseline value of \(\sigma\) is impractically large, the diminishing returns on replication may still be worth the extra computational costs.

To create repeats, invoke vfold_cv() with an additional argument repeats:

vfold_cv(ames_train, v = 10, repeats = 5)

## #  10-fold cross-validation repeated 5 times 
## # A tibble: 50 x 3
##    splits           id      id2   
##    <list>           <chr>   <chr> 
##  1 <split [2K/220]> Repeat1 Fold01
##  2 <split [2K/220]> Repeat1 Fold02
##  3 <split [2K/220]> Repeat1 Fold03
##  4 <split [2K/220]> Repeat1 Fold04
##  5 <split [2K/220]> Repeat1 Fold05
##  6 <split [2K/220]> Repeat1 Fold06
##  7 <split [2K/220]> Repeat1 Fold07
##  8 <split [2K/220]> Repeat1 Fold08
##  9 <split [2K/220]> Repeat1 Fold09
## 10 <split [2K/219]> Repeat1 Fold10
## # … with 40 more rows
…
These are the resampling estimates averaged over the individual replicates. To get the metrics for each resample, use the option summarize = FALSE

Notice how much more realistic the performance estimates are than the resubstitution estimates from Section 10.6.4!

To obtain the assessment set predictions:

assess_res <- collect_predictions(rf_res)
assess_res

## # A tibble: 2,199 x 4
##    id     .pred  .row Sale_Price
##    <chr>  <dbl> <int>      <dbl>
##  1 Fold01  5.24    11       5.23
##  2 Fold01  5.36    47       5.35
##  3 Fold01  5.42    52       5.46
##  4 Fold01  5.15    94       5.15
##  5 Fold01  5.16   111       5.15
##  6 Fold01  5.13   115       5.04
##  7 Fold01  5.11   117       5.16
##  8 Fold01  5.10   118       5.11
##  9 Fold01  5.15   134       5.03
## 10 Fold01  5.06   140       5.18
## # … with 2,189 more rows
…
