Chapter 9 N Parameters | Gov 50: Data
…
Here, the (Intercept) variable represents our “baseline for comparison” female group of voters. The median value is the percentage of the female group that voted in the 2006 election, as the average of 1 (voted) and 0 (didn’t vote) gives us the percentage of the group that did vote. That is to say– about 31% of the female group voted in the primary election. The sexMale term corresponds to the offset in intercept for the male respondents relative to the female respondents. In other words, the female respondents had an average intercept of .31 = 31% while the male respondent intercept of .31 + .012 = .322 = 32% voting rate. Therefore, male participants were slightly more likely to vote in the 2006 primary election, as compared to the female participants.

9.5.3.2 Voting and Age

Now that we’ve seen the relationship between sex and voting, let’s take a look at age. Begin by grouping our observations by age and counting by primary_06, which gives us counts for 1 (yes) or 0 (no) for number voting in each age category.

age <- ch9_sham %>% 
  group_by(age) %>% 
  count(primary_06) 

age

## # A tibble: 150 x 3
## # Groups:   age [78]
##      age primary_06     n
##    <dbl>      <int> <int>
##  1    20          0   122
##  2    20          1    16
##  3    21          0   137
##  4    21          1    24
##  5    22          0   103
##  6    22          1    19
##  7    23          0   124
##  8    23          1    23
##  9    24          0   106
## 10    24          1    16
## # … with 140 more rows
…
