Chapter 7 Two Parameters | Gov 50: Data
…
Run the pennies_sample code below to extract our 50 sampled pennies.

pennies_sample <- tibble(ID = c(1:50), 
                         year = c(2002, 1986, 2017, 1988, 2008, 1983, 2008, 
                                  1996, 2004, 2000, 1994, 1995, 2015, 1978, 
                                  1974, 2015, 2016, 1996, 1983, 1971, 1981, 
                                  1976, 1998, 2017, 1979, 1979, 1993, 2006, 
                                  1988, 1978, 2013, 1976, 1979, 1985, 1985, 
                                  2015, 1962, 1999, 2015, 1990, 1992, 1997, 
                                  2018, 2015, 1997, 2017, 1982, 1988, 2006, 
                                  2017))
pennies_sample

## # A tibble: 50 x 2
##       ID  year
##    <int> <dbl>
##  1     1  2002
##  2     2  1986
##  3     3  2017
##  4     4  1988
##  5     5  2008
##  6     6  1983
##  7     7  2008
##  8     8  1996
##  9     9  2004
## 10    10  2000
## # … with 40 more rows
…
⊕To conduct bootstraps, make sure you install both rsample and tidyverse libraries

The intuition with bootstrapping is that we can model an inference about the population from resampling our sample data and then performing an inference about a sample from each resample. It will look something like this: resampled → sample → population.

The first thing we want to do when bootstrapping is to create our bootstrap samples. Since we are concerned with the year of pennies in 2019, let’s select year in our data set before we create our bootstraps. Let’s now perform the virtual analog for 1000 resamples. Using these results, we’ll be able to study the variability in the sample means from 1000 resamples of size 50. Let’s first add a times = 1000 argument to bootstraps()  to indicate we would like 1000 replicates. Remember that we must use the rsample library to use bootstraps.

set.seed(9)
virtual_resamples <- pennies_sample %>%
  select(year) %>%
  bootstraps(times = 1000)
virtual_resamples

## # Bootstrap sampling 
## # A tibble: 1,000 x 2
##    splits          id           
##    <list>          <chr>        
##  1 <split [50/19]> Bootstrap0001
##  2 <split [50/20]> Bootstrap0002
##  3 <split [50/16]> Bootstrap0003
##  4 <split [50/18]> Bootstrap0004
##  5 <split [50/18]> Bootstrap0005
##  6 <split [50/18]> Bootstrap0006
##  7 <split [50/17]> Bootstrap0007
##  8 <split [50/14]> Bootstrap0008
##  9 <split [50/19]> Bootstrap0009
## 10 <split [50/20]> Bootstrap0010
## # … with 990 more rows

Our bootstrap samples are stored in a tibble-like object, with each bootstrap sample nested in the splits column. Each row is a different bootstrap sample and the id column is used to identify each bootstrap sample.

⊕Check out ?analysis in the Console to get an even more comprehensive review of what analysis() does

Tto view a specific bootstrap sample, use the analysis() function from the rsample package, which basically allows you to view a specific bootstrap sample as a data frame. To do so, type analysis(virtual_resamples$splits[[n]]) %>% as_tibble() with n as the nth row bootstrap sample. Consider the first bootstrap sample:

analysis(virtual_resamples$splits[[1]]) %>% 
  as_tibble()

## # A tibble: 50 x 1
##     year
##    <dbl>
##  1  1983
##  2  2017
##  3  1983
##  4  2017
##  5  1995
##  6  1988
##  7  1978
##  8  2015
##  9  1962
## 10  1996
## # … with 40 more rows

Notice that it has 50 rows, which is the same as the number of rows in our pennies_sample. Now that we know how to create bootstrap samples and view them, we can apply more code to our bootstraps to find our desired statistic, which is the average year of pennies in 2019.

⊕In this chapter, bootstrap samples and resamples mean the same thing

To compute our desired statistics, we now create the column boot.

virtual_resamples <- pennies_sample %>%
  select(year) %>%
  bootstraps(times = 1000) %>%
  mutate(boot = map(splits, ~ analysis(.)))
virtual_resamples

## # Bootstrap sampling 
## # A tibble: 1,000 x 3
##    splits          id            boot             
##    <list>          <chr>         <list>           
##  1 <split [50/19]> Bootstrap0001 <tibble [50 × 1]>
##  2 <split [50/18]> Bootstrap0002 <tibble [50 × 1]>
##  3 <split [50/20]> Bootstrap0003 <tibble [50 × 1]>
##  4 <split [50/18]> Bootstrap0004 <tibble [50 × 1]>
##  5 <split [50/19]> Bootstrap0005 <tibble [50 × 1]>
##  6 <split [50/15]> Bootstrap0006 <tibble [50 × 1]>
##  7 <split [50/13]> Bootstrap0007 <tibble [50 × 1]>
##  8 <split [50/19]> Bootstrap0008 <tibble [50 × 1]>
##  9 <split [50/20]> Bootstrap0009 <tibble [50 × 1]>
## 10 <split [50/19]> Bootstrap0010 <tibble [50 × 1]>
## # … with 990 more rows

We are iterating over each bootstrap sample, applying analysis() to each row. boot is now a list-column in the tibble, which we can use if we want to find a specific characteristic of each sample like the average year. Given that boot is a list column and we want to pull out the mean year as we are interested in this, we can create two more columns:

set.seed(9)
virtual_resamples <- pennies_sample %>%
  select(year) %>%
  bootstraps(times = 1000) %>%
  mutate(boot = map(splits, ~ analysis(.))) %>%
  mutate(years = map(boot, ~ pull(., year))) %>% 
  mutate(year_mean = map_dbl(years, ~ mean(.)))
virtual_resamples

## # Bootstrap sampling 
## # A tibble: 1,000 x 5
##    splits          id            boot              years      year_mean
##    <list>          <chr>         <list>            <list>         <dbl>
##  1 <split [50/19]> Bootstrap0001 <tibble [50 × 1]> <dbl [50]>     1992.
##  2 <split [50/20]> Bootstrap0002 <tibble [50 × 1]> <dbl [50]>     1999.
##  3 <split [50/16]> Bootstrap0003 <tibble [50 × 1]> <dbl [50]>     1992.
##  4 <split [50/18]> Bootstrap0004 <tibble [50 × 1]> <dbl [50]>     1993.
##  5 <split [50/18]> Bootstrap0005 <tibble [50 × 1]> <dbl [50]>     1995.
##  6 <split [50/18]> Bootstrap0006 <tibble [50 × 1]> <dbl [50]>     1998.
##  7 <split [50/17]> Bootstrap0007 <tibble [50 × 1]> <dbl [50]>     1993.
##  8 <split [50/14]> Bootstrap0008 <tibble [50 × 1]> <dbl [50]>     1995.
##  9 <split [50/19]> Bootstrap0009 <tibble [50 × 1]> <dbl [50]>     1993.
## 10 <split [50/20]> Bootstrap0010 <tibble [50 × 1]> <dbl [50]>     2000.
## # … with 990 more rows
…
Dropping missing values can be dangerous, depending on their origin and the goals of our analysis. Never delete lightly.

Second, use (almost) the same code as before:

set.seed(9)
virtual_resamples <- ch7_male %>%
  bootstraps(times = 1000) %>%
  mutate(boot = map(splits, ~ analysis(.))) %>%
  mutate(heights = map(boot, ~ pull(., height))) %>% 
  mutate(height_mean = map_dbl(heights, ~ mean(.)))
virtual_resamples

## # Bootstrap sampling 
## # A tibble: 1,000 x 5
##    splits             id            boot                heights      height_mean
##    <list>             <chr>         <list>              <list>             <dbl>
##  1 <split [1.8K/663]> Bootstrap0001 <tibble [1,814 × 1… <dbl [1,814…        176.
##  2 <split [1.8K/640]> Bootstrap0002 <tibble [1,814 × 1… <dbl [1,814…        176.
##  3 <split [1.8K/662]> Bootstrap0003 <tibble [1,814 × 1… <dbl [1,814…        176.
##  4 <split [1.8K/649]> Bootstrap0004 <tibble [1,814 × 1… <dbl [1,814…        176.
##  5 <split [1.8K/669]> Bootstrap0005 <tibble [1,814 × 1… <dbl [1,814…        176.
##  6 <split [1.8K/660]> Bootstrap0006 <tibble [1,814 × 1… <dbl [1,814…        176.
##  7 <split [1.8K/661]> Bootstrap0007 <tibble [1,814 × 1… <dbl [1,814…        176.
##  8 <split [1.8K/641]> Bootstrap0008 <tibble [1,814 × 1… <dbl [1,814…        176.
##  9 <split [1.8K/647]> Bootstrap0009 <tibble [1,814 × 1… <dbl [1,814…        176.
## 10 <split [1.8K/657]> Bootstrap0010 <tibble [1,814 × 1… <dbl [1,814…        176.
## # … with 990 more rows
…
